simulation/qsim/interlock.msim.vcd
$comment
	File created using the following command:
		vcd file interlock.msim.vcd -direction
$end
$date
	Sat May 12 17:02:34 2018
$end
$version
	ModelSim Version 10.5b
$end
$timescale
	1ps
$end

$scope module interlock_vhd_vec_tst $end
$var wire 1 ! clk $end
$var wire 1 " d1 [3] $end
$var wire 1 # d1 [2] $end
$var wire 1 $ d1 [1] $end
$var wire 1 % d1 [0] $end
$var wire 1 & d2 [3] $end
$var wire 1 ' d2 [2] $end
$var wire 1 ( d2 [1] $end
$var wire 1 ) d2 [0] $end
$var wire 1 * d3 [3] $end
$var wire 1 + d3 [2] $end
$var wire 1 , d3 [1] $end
$var wire 1 - d3 [0] $end
$var wire 1 . d4 [3] $end
$var wire 1 / d4 [2] $end
$var wire 1 0 d4 [1] $end
$var wire 1 1 d4 [0] $end
$var wire 1 2 d5 [3] $end
$var wire 1 3 d5 [2] $end
$var wire 1 4 d5 [1] $end
$var wire 1 5 d5 [0] $end
$var wire 1 6 d6 [3] $end
$var wire 1 7 d6 [2] $end
$var wire 1 8 d6 [1] $end
$var wire 1 9 d6 [0] $end
$var wire 1 : d7 [3] $end
$var wire 1 ; d7 [2] $end
$var wire 1 < d7 [1] $end
$var wire 1 = d7 [0] $end
$var wire 1 > d8 [3] $end
$var wire 1 ? d8 [2] $end
$var wire 1 @ d8 [1] $end
$var wire 1 A d8 [0] $end
$var wire 1 B s1 [3] $end
$var wire 1 C s1 [2] $end
$var wire 1 D s1 [1] $end
$var wire 1 E s1 [0] $end
$var wire 1 F s2 [3] $end
$var wire 1 G s2 [2] $end
$var wire 1 H s2 [1] $end
$var wire 1 I s2 [0] $end
$var wire 1 J s3 [3] $end
$var wire 1 K s3 [2] $end
$var wire 1 L s3 [1] $end
$var wire 1 M s3 [0] $end
$var wire 1 N s4 [3] $end
$var wire 1 O s4 [2] $end
$var wire 1 P s4 [1] $end
$var wire 1 Q s4 [0] $end
$var wire 1 R s5 [3] $end
$var wire 1 S s5 [2] $end
$var wire 1 T s5 [1] $end
$var wire 1 U s5 [0] $end
$var wire 1 V s6 [3] $end
$var wire 1 W s6 [2] $end
$var wire 1 X s6 [1] $end
$var wire 1 Y s6 [0] $end
$var wire 1 Z s7 [3] $end
$var wire 1 [ s7 [2] $end
$var wire 1 \ s7 [1] $end
$var wire 1 ] s7 [0] $end
$var wire 1 ^ s8 [3] $end
$var wire 1 _ s8 [2] $end
$var wire 1 ` s8 [1] $end
$var wire 1 a s8 [0] $end

$scope module i1 $end
$var wire 1 b gnd $end
$var wire 1 c vcc $end
$var wire 1 d unknown $end
$var wire 1 e devoe $end
$var wire 1 f devclrn $end
$var wire 1 g devpor $end
$var wire 1 h ww_devoe $end
$var wire 1 i ww_devclrn $end
$var wire 1 j ww_devpor $end
$var wire 1 k ww_clk $end
$var wire 1 l ww_d1 [3] $end
$var wire 1 m ww_d1 [2] $end
$var wire 1 n ww_d1 [1] $end
$var wire 1 o ww_d1 [0] $end
$var wire 1 p ww_d2 [3] $end
$var wire 1 q ww_d2 [2] $end
$var wire 1 r ww_d2 [1] $end
$var wire 1 s ww_d2 [0] $end
$var wire 1 t ww_d3 [3] $end
$var wire 1 u ww_d3 [2] $end
$var wire 1 v ww_d3 [1] $end
$var wire 1 w ww_d3 [0] $end
$var wire 1 x ww_d4 [3] $end
$var wire 1 y ww_d4 [2] $end
$var wire 1 z ww_d4 [1] $end
$var wire 1 { ww_d4 [0] $end
$var wire 1 | ww_d5 [3] $end
$var wire 1 } ww_d5 [2] $end
$var wire 1 ~ ww_d5 [1] $end
$var wire 1 !! ww_d5 [0] $end
$var wire 1 "! ww_d6 [3] $end
$var wire 1 #! ww_d6 [2] $end
$var wire 1 $! ww_d6 [1] $end
$var wire 1 %! ww_d6 [0] $end
$var wire 1 &! ww_d7 [3] $end
$var wire 1 '! ww_d7 [2] $end
$var wire 1 (! ww_d7 [1] $end
$var wire 1 )! ww_d7 [0] $end
$var wire 1 *! ww_d8 [3] $end
$var wire 1 +! ww_d8 [2] $end
$var wire 1 ,! ww_d8 [1] $end
$var wire 1 -! ww_d8 [0] $end
$var wire 1 .! ww_s1 [3] $end
$var wire 1 /! ww_s1 [2] $end
$var wire 1 0! ww_s1 [1] $end
$var wire 1 1! ww_s1 [0] $end
$var wire 1 2! ww_s2 [3] $end
$var wire 1 3! ww_s2 [2] $end
$var wire 1 4! ww_s2 [1] $end
$var wire 1 5! ww_s2 [0] $end
$var wire 1 6! ww_s3 [3] $end
$var wire 1 7! ww_s3 [2] $end
$var wire 1 8! ww_s3 [1] $end
$var wire 1 9! ww_s3 [0] $end
$var wire 1 :! ww_s4 [3] $end
$var wire 1 ;! ww_s4 [2] $end
$var wire 1 <! ww_s4 [1] $end
$var wire 1 =! ww_s4 [0] $end
$var wire 1 >! ww_s5 [3] $end
$var wire 1 ?! ww_s5 [2] $end
$var wire 1 @! ww_s5 [1] $end
$var wire 1 A! ww_s5 [0] $end
$var wire 1 B! ww_s6 [3] $end
$var wire 1 C! ww_s6 [2] $end
$var wire 1 D! ww_s6 [1] $end
$var wire 1 E! ww_s6 [0] $end
$var wire 1 F! ww_s7 [3] $end
$var wire 1 G! ww_s7 [2] $end
$var wire 1 H! ww_s7 [1] $end
$var wire 1 I! ww_s7 [0] $end
$var wire 1 J! ww_s8 [3] $end
$var wire 1 K! ww_s8 [2] $end
$var wire 1 L! ww_s8 [1] $end
$var wire 1 M! ww_s8 [0] $end
$var wire 1 N! \clk~combout\ $end
$var wire 1 O! \Mux10~1_combout\ $end
$var wire 1 P! \Mux13~14_combout\ $end
$var wire 1 Q! \Mux11~0_combout\ $end
$var wire 1 R! \Mux11~1\ $end
$var wire 1 S! \Mux10~0\ $end
$var wire 1 T! \Mux10~2\ $end
$var wire 1 U! \Mux13~16\ $end
$var wire 1 V! \Mux13~17_combout\ $end
$var wire 1 W! \Mux13~13\ $end
$var wire 1 X! \Mux0~0\ $end
$var wire 1 Y! \Mux12~0\ $end
$var wire 1 Z! \Mux13~3\ $end
$var wire 1 [! \Mux13~15_combout\ $end
$var wire 1 \! \s1[0]~reg0_regout\ $end
$var wire 1 ]! \s1[1]~reg0_regout\ $end
$var wire 1 ^! \s1[2]~reg0_regout\ $end
$var wire 1 _! \s1[3]~reg0_regout\ $end
$var wire 1 `! \Mux24~1_combout\ $end
$var wire 1 a! \Mux24~0\ $end
$var wire 1 b! \Mux24~2\ $end
$var wire 1 c! \Mux27~3\ $end
$var wire 1 d! \Mux27~15_combout\ $end
$var wire 1 e! \Mux27~13\ $end
$var wire 1 f! \Mux14~0\ $end
$var wire 1 g! \Mux26~0\ $end
$var wire 1 h! \Mux25~0_combout\ $end
$var wire 1 i! \Mux27~14_combout\ $end
$var wire 1 j! \Mux25~1\ $end
$var wire 1 k! \Mux27~16\ $end
$var wire 1 l! \Mux27~17_combout\ $end
$var wire 1 m! \s2[0]~reg0_regout\ $end
$var wire 1 n! \s2[1]~reg0_regout\ $end
$var wire 1 o! \s2[2]~reg0_regout\ $end
$var wire 1 p! \s2[3]~reg0_regout\ $end
$var wire 1 q! \Mux38~1_combout\ $end
$var wire 1 r! \Mux38~2\ $end
$var wire 1 s! \Mux41~3\ $end
$var wire 1 t! \Mux41~15_combout\ $end
$var wire 1 u! \Mux41~13\ $end
$var wire 1 v! \Mux28~0\ $end
$var wire 1 w! \Mux40~0\ $end
$var wire 1 x! \Mux38~0\ $end
$var wire 1 y! \Mux41~14_combout\ $end
$var wire 1 z! \Mux39~0_combout\ $end
$var wire 1 {! \Mux39~1\ $end
$var wire 1 |! \Mux41~16\ $end
$var wire 1 }! \Mux41~17_combout\ $end
$var wire 1 ~! \s3[0]~reg0_regout\ $end
$var wire 1 !" \s3[1]~reg0_regout\ $end
$var wire 1 "" \s3[2]~reg0_regout\ $end
$var wire 1 #" \s3[3]~reg0_regout\ $end
$var wire 1 $" \Mux52~1_combout\ $end
$var wire 1 %" \Mux55~3\ $end
$var wire 1 &" \Mux55~15_combout\ $end
$var wire 1 '" \Mux55~13\ $end
$var wire 1 (" \Mux42~0\ $end
$var wire 1 )" \Mux54~0\ $end
$var wire 1 *" \Mux52~2\ $end
$var wire 1 +" \Mux52~0\ $end
$var wire 1 ," \Mux55~14_combout\ $end
$var wire 1 -" \Mux53~0_combout\ $end
$var wire 1 ." \Mux53~1\ $end
$var wire 1 /" \Mux55~16\ $end
$var wire 1 0" \Mux55~17_combout\ $end
$var wire 1 1" \s4[0]~reg0_regout\ $end
$var wire 1 2" \s4[1]~reg0_regout\ $end
$var wire 1 3" \s4[2]~reg0_regout\ $end
$var wire 1 4" \s4[3]~reg0_regout\ $end
$var wire 1 5" \Mux66~1_combout\ $end
$var wire 1 6" \Mux69~3\ $end
$var wire 1 7" \Mux69~15_combout\ $end
$var wire 1 8" \Mux69~13\ $end
$var wire 1 9" \Mux67~0_combout\ $end
$var wire 1 :" \Mux66~2\ $end
$var wire 1 ;" \Mux66~0\ $end
$var wire 1 <" \Mux69~14_combout\ $end
$var wire 1 =" \Mux67~1\ $end
$var wire 1 >" \Mux56~0\ $end
$var wire 1 ?" \Mux68~0\ $end
$var wire 1 @" \Mux69~16\ $end
$var wire 1 A" \Mux69~17_combout\ $end
$var wire 1 B" \s5[0]~reg0_regout\ $end
$var wire 1 C" \s5[1]~reg0_regout\ $end
$var wire 1 D" \s5[2]~reg0_regout\ $end
$var wire 1 E" \s5[3]~reg0_regout\ $end
$var wire 1 F" \Mux80~1_combout\ $end
$var wire 1 G" \Mux83~16\ $end
$var wire 1 H" \Mux83~17_combout\ $end
$var wire 1 I" \Mux83~13\ $end
$var wire 1 J" \Mux70~0\ $end
$var wire 1 K" \Mux82~0\ $end
$var wire 1 L" \Mux80~2\ $end
$var wire 1 M" \Mux80~0\ $end
$var wire 1 N" \Mux83~14_combout\ $end
$var wire 1 O" \Mux81~0_combout\ $end
$var wire 1 P" \Mux81~1\ $end
$var wire 1 Q" \Mux83~3\ $end
$var wire 1 R" \Mux83~15_combout\ $end
$var wire 1 S" \s6[0]~reg0_regout\ $end
$var wire 1 T" \s6[1]~reg0_regout\ $end
$var wire 1 U" \s6[2]~reg0_regout\ $end
$var wire 1 V" \s6[3]~reg0_regout\ $end
$var wire 1 W" \Mux94~1_combout\ $end
$var wire 1 X" \Mux94~2\ $end
$var wire 1 Y" \Mux97~3\ $end
$var wire 1 Z" \Mux97~15_combout\ $end
$var wire 1 [" \Mux97~13\ $end
$var wire 1 \" \Mux84~0\ $end
$var wire 1 ]" \Mux96~0\ $end
$var wire 1 ^" \Mux94~0\ $end
$var wire 1 _" \Mux97~14_combout\ $end
$var wire 1 `" \Mux95~0_combout\ $end
$var wire 1 a" \Mux95~1\ $end
$var wire 1 b" \Mux97~16\ $end
$var wire 1 c" \Mux97~17_combout\ $end
$var wire 1 d" \s7[0]~reg0_regout\ $end
$var wire 1 e" \s7[1]~reg0_regout\ $end
$var wire 1 f" \s7[2]~reg0_regout\ $end
$var wire 1 g" \s7[3]~reg0_regout\ $end
$var wire 1 h" \Mux108~1_combout\ $end
$var wire 1 i" \Mux98~0\ $end
$var wire 1 j" \Mux110~0\ $end
$var wire 1 k" \Mux111~16\ $end
$var wire 1 l" \Mux111~17_combout\ $end
$var wire 1 m" \Mux111~13\ $end
$var wire 1 n" \Mux108~0\ $end
$var wire 1 o" \Mux108~2\ $end
$var wire 1 p" \Mux109~0_combout\ $end
$var wire 1 q" \Mux111~14_combout\ $end
$var wire 1 r" \Mux109~1\ $end
$var wire 1 s" \Mux111~3\ $end
$var wire 1 t" \Mux111~15_combout\ $end
$var wire 1 u" \s8[0]~reg0_regout\ $end
$var wire 1 v" \s8[1]~reg0_regout\ $end
$var wire 1 w" \s8[2]~reg0_regout\ $end
$var wire 1 x" \s8[3]~reg0_regout\ $end
$var wire 1 y" last_s1 [3] $end
$var wire 1 z" last_s1 [2] $end
$var wire 1 {" last_s1 [1] $end
$var wire 1 |" last_s1 [0] $end
$var wire 1 }" \d1~combout\ [3] $end
$var wire 1 ~" \d1~combout\ [2] $end
$var wire 1 !# \d1~combout\ [1] $end
$var wire 1 "# \d1~combout\ [0] $end
$var wire 1 ## last_s2 [3] $end
$var wire 1 $# last_s2 [2] $end
$var wire 1 %# last_s2 [1] $end
$var wire 1 &# last_s2 [0] $end
$var wire 1 '# \d2~combout\ [3] $end
$var wire 1 (# \d2~combout\ [2] $end
$var wire 1 )# \d2~combout\ [1] $end
$var wire 1 *# \d2~combout\ [0] $end
$var wire 1 +# last_s3 [3] $end
$var wire 1 ,# last_s3 [2] $end
$var wire 1 -# last_s3 [1] $end
$var wire 1 .# last_s3 [0] $end
$var wire 1 /# \d3~combout\ [3] $end
$var wire 1 0# \d3~combout\ [2] $end
$var wire 1 1# \d3~combout\ [1] $end
$var wire 1 2# \d3~combout\ [0] $end
$var wire 1 3# last_s4 [3] $end
$var wire 1 4# last_s4 [2] $end
$var wire 1 5# last_s4 [1] $end
$var wire 1 6# last_s4 [0] $end
$var wire 1 7# \d4~combout\ [3] $end
$var wire 1 8# \d4~combout\ [2] $end
$var wire 1 9# \d4~combout\ [1] $end
$var wire 1 :# \d4~combout\ [0] $end
$var wire 1 ;# \d5~combout\ [3] $end
$var wire 1 <# \d5~combout\ [2] $end
$var wire 1 =# \d5~combout\ [1] $end
$var wire 1 ># \d5~combout\ [0] $end
$var wire 1 ?# last_s5 [3] $end
$var wire 1 @# last_s5 [2] $end
$var wire 1 A# last_s5 [1] $end
$var wire 1 B# last_s5 [0] $end
$var wire 1 C# \d6~combout\ [3] $end
$var wire 1 D# \d6~combout\ [2] $end
$var wire 1 E# \d6~combout\ [1] $end
$var wire 1 F# \d6~combout\ [0] $end
$var wire 1 G# last_s6 [3] $end
$var wire 1 H# last_s6 [2] $end
$var wire 1 I# last_s6 [1] $end
$var wire 1 J# last_s6 [0] $end
$var wire 1 K# \d7~combout\ [3] $end
$var wire 1 L# \d7~combout\ [2] $end
$var wire 1 M# \d7~combout\ [1] $end
$var wire 1 N# \d7~combout\ [0] $end
$var wire 1 O# last_s7 [3] $end
$var wire 1 P# last_s7 [2] $end
$var wire 1 Q# last_s7 [1] $end
$var wire 1 R# last_s7 [0] $end
$var wire 1 S# \d8~combout\ [3] $end
$var wire 1 T# \d8~combout\ [2] $end
$var wire 1 U# \d8~combout\ [1] $end
$var wire 1 V# \d8~combout\ [0] $end
$var wire 1 W# last_s8 [3] $end
$var wire 1 X# last_s8 [2] $end
$var wire 1 Y# last_s8 [1] $end
$var wire 1 Z# last_s8 [0] $end
$upscope $end
$upscope $end
$enddefinitions $end
#0
$dumpvars
0!
0b
1c
xd
1e
1f
1g
1h
1i
1j
0k
0N!
0O!
1P!
0Q!
0R!
0S!
0T!
0U!
0V!
1W!
0X!
0Y!
1Z!
1[!
0\!
0]!
0^!
0_!
x`!
0a!
xb!
1c!
1d!
xe!
0f!
xg!
0h!
1i!
xj!
0k!
0l!
0m!
0n!
0o!
0p!
xq!
xr!
1s!
1t!
xu!
0v!
xw!
0x!
1y!
0z!
x{!
0|!
0}!
0~!
0!"
0""
0#"
x$"
1%"
1&"
x'"
0("
x)"
x*"
0+"
1,"
0-"
x."
0/"
00"
01"
02"
03"
04"
x5"
16"
17"
x8"
09"
x:"
0;"
1<"
x="
0>"
x?"
0@"
0A"
0B"
0C"
0D"
0E"
xF"
0G"
0H"
xI"
0J"
xK"
xL"
0M"
1N"
0O"
xP"
1Q"
1R"
0S"
0T"
0U"
0V"
xW"
xX"
1Y"
1Z"
x["
0\"
x]"
0^"
1_"
0`"
xa"
0b"
0c"
0d"
0e"
0f"
0g"
xh"
0i"
xj"
0k"
0l"
xm"
0n"
xo"
0p"
1q"
xr"
1s"
1t"
0u"
0v"
0w"
0x"
0"
1#
0$
1%
0l
1m
0n
1o
xp
xq
xr
xs
xt
xu
xv
xw
xx
xy
xz
x{
x|
x}
x~
x!!
x"!
x#!
x$!
x%!
x&!
x'!
x(!
x)!
x*!
x+!
x,!
x-!
0.!
0/!
00!
01!
02!
03!
04!
05!
06!
07!
08!
09!
0:!
0;!
0<!
0=!
0>!
0?!
0@!
0A!
0B!
0C!
0D!
0E!
0F!
0G!
0H!
0I!
0J!
0K!
0L!
0M!
0y"
0z"
0{"
0|"
0}"
1~"
0!#
1"#
0##
0$#
0%#
0&#
x'#
x(#
x)#
x*#
0+#
0,#
0-#
0.#
x/#
x0#
x1#
x2#
03#
04#
05#
06#
x7#
x8#
x9#
x:#
x;#
x<#
x=#
x>#
0?#
0@#
0A#
0B#
xC#
xD#
xE#
xF#
0G#
0H#
0I#
0J#
xK#
xL#
xM#
xN#
0O#
0P#
0Q#
0R#
xS#
xT#
xU#
xV#
0W#
0X#
0Y#
0Z#
x&
x'
x(
x)
x*
x+
x,
x-
x.
x/
x0
x1
x2
x3
x4
x5
x6
x7
x8
x9
x:
x;
x<
x=
x>
x?
x@
xA
0B
0C
0D
0E
0F
0G
0H
0I
0J
0K
0L
0M
0N
0O
0P
0Q
0R
0S
0T
0U
0V
0W
0X
0Y
0Z
0[
0\
0]
0^
0_
0`
0a
$end
#10000
1!
1k
1N!
xX#
xw"
xx"
xW#
xu"
xY#
xv"
xZ#
xf"
xO#
xQ#
xe"
xR#
xd"
xP#
xg"
xH#
xU"
xG#
xV"
xT"
xJ#
xS"
xI#
xA#
xC"
xD"
x?#
xE"
xB#
xB"
x@#
x3"
x3#
x4"
x5#
x2"
x6#
x1"
x4#
x""
x-#
x!"
x.#
x~!
x,#
x+#
x#"
xo!
x%#
xn!
x&#
xm!
x$#
xp!
x##
1|"
1\!
xa!
xc!
xk!
xx!
xs!
x|!
x%"
x/"
x+"
x6"
x;"
x@"
xG"
xM"
xQ"
xY"
xb"
x^"
xk"
xn"
xs"
11!
x2!
x5!
x4!
xf!
xh!
x3!
x6!
x9!
x8!
xv!
xz!
x7!
x=!
x<!
x:!
x("
x-"
x;!
xA!
x>!
x?!
x@!
x>"
x9"
xE!
xD!
xB!
xC!
xJ"
xO"
xF!
xI!
xH!
x\"
x`"
xG!
xL!
xM!
xJ!
xK!
xi"
xp"
xt"
xq"
xl"
x_"
xc"
xZ"
xR"
xN"
xH"
xA"
x<"
x7"
x,"
x0"
x&"
x}!
xt!
xy!
xl!
xd!
xi!
1E
xI
xH
xG
xF
xM
xL
xK
xJ
xQ
xP
xO
xN
xU
xT
xS
xR
xY
xX
xW
xV
x]
x\
x[
xZ
xa
x`
x_
x^
#17000
1"
0#
1$
1n
0m
1l
1}"
0~"
1!#
#20000
0!
0k
0N!
#30000
1!
1k
1N!
#34000
1#
0%
0o
1m
1~"
0"#
0W!
1Y!
#40000
0!
0k
0N!
#50000
1!
1k
1N!
1]!
0|"
0\!
1{"
1U!
1X!
01!
10!
1V!
0E
1D
#51000
0#
1%
0"
1o
0m
0l
0}"
0~"
1"#
#60000
0!
0k
0N!
#68000
0%
0$
0o
0n
0!#
0"#
1O!
0Y!
#70000
1!
1k
1N!
0]!
0{"
0U!
0X!
00!
0V!
0D
#80000
0!
0k
0N!
#85000
1%
1#
1"
1o
1m
1l
1}"
1~"
1"#
0O!
1W!
1R!
0R!
#90000
1!
1k
1N!
1|"
1\!
11!
1E
#100000
0!
0k
0N!
#102000
0"
0l
0}"
#110000
1!
1k
1N!
#119000
1"
1l
1}"
#120000
0!
0k
0N!
#130000
1!
1k
1N!
#136000
0"
0#
0m
0l
0}"
0~"
#140000
0!
0k
0N!
#150000
1!
1k
1N!
#153000
1"
1$
1n
1l
1}"
1!#
#160000
0!
0k
0N!
#170000
1!
0"
0$
1k
0n
0l
0}"
0!#
1N!
#180000
0!
0k
0N!
#187000
1"
1$
0%
0o
1n
1l
1}"
1!#
0"#
0W!
1Y!
#190000
1!
1k
1N!
1]!
0|"
0\!
1{"
1U!
1X!
01!
10!
1V!
0E
1D
#200000
0!
0k
0N!
#204000
0$
1%
1#
1o
0n
1m
1~"
0!#
1"#
1W!
0Y!
#210000
1!
1k
1N!
0]!
1|"
1\!
0{"
0U!
0X!
11!
0V!
00!
1E
0D
#220000
0!
0k
0N!
#221000
0%
0o
0"#
1O!
0W!
1R!
#230000
1!
1k
1N!
0|"
0\!
1z"
1^!
0Z!
1/!
1U!
01!
1Q!
0[!
0E
1C
1V!
#238000
1%
0"
1o
0l
0}"
1"#
0O!
#240000
0!
0k
0N!
#250000
1!
1k
1N!
#255000
0%
1"
1$
0#
0o
1n
0m
1l
1}"
0~"
1!#
0"#
0R!
0U!
1Z!
1[!
0V!
1Y!
#260000
0!
0k
0N!
#270000
1!
1k
1N!
1]!
1{"
0z"
0^!
0/!
1U!
0Q!
1X!
10!
1D
0C
1V!
#272000
1%
0"
1#
1o
1m
0l
0}"
1~"
1"#
#280000
0!
0k
0N!
#289000
0$
0n
0!#
1W!
0Y!
#290000
1!
1k
1N!
0]!
1|"
1\!
0{"
0U!
0X!
11!
0V!
00!
1E
0D
#300000
0!
0k
0N!
#306000
1$
1n
1!#
#310000
1!
1k
1N!
#320000
0!
0k
0N!
#323000
0$
1"
0#
0n
0m
1l
1}"
0~"
0!#
#330000
1!
1k
1N!
#340000
0!
0k
0N!
#350000
1!
1k
1N!
#357000
0"
1#
1m
0l
0}"
1~"
#360000
0!
0k
0N!
#370000
1!
1k
1N!
#374000
0#
0m
0~"
#380000
0!
0k
0N!
#390000
1!
1k
1N!
#391000
1#
1"
1$
1n
1m
1l
1}"
1~"
1!#
#400000
0!
0k
0N!
#408000
0#
0"
0$
0%
0o
0n
0m
0l
0}"
0~"
0!#
0"#
1O!
0W!
#410000
1!
1k
1N!
0|"
0\!
01!
0E
#420000
0!
0k
0N!
#425000
1#
1"
1%
1o
1m
1l
1}"
1~"
1"#
0O!
1W!
1R!
0R!
#430000
1!
1k
1N!
1|"
1\!
11!
1E
#440000
0!
0k
0N!
#442000
0#
1$
1n
0m
0~"
1!#
#450000
1!
1k
1N!
#459000
1#
0"
1m
0l
0}"
1~"
#460000
0!
0k
0N!
#470000
1!
1k
1N!
#476000
0#
1"
0%
0o
0m
1l
1}"
0~"
0"#
0W!
1Y!
#480000
0!
0k
0N!
#490000
1!
1k
1N!
1]!
0|"
0\!
1{"
1U!
1X!
01!
10!
1V!
0E
1D
#493000
0"
1%
0$
1o
0n
0l
0}"
0!#
1"#
1W!
0Y!
